…
word2vec in Tidytext
========================================================
&nbsp;


```r
unigram_probs
```

```
# A tibble: 23,761 x 3
   word      n       p
   <chr> <int>   <dbl>
 1 the   11864 0.0434 
 2 to    10546 0.0386 
 3 t.co   6498 0.0238 
 4 https  6422 0.0235 
 5 and    5968 0.0218 
 6 of     5315 0.0194 
 7 in     4443 0.0163 
 8 a      4242 0.0155 
 9 for    3580 0.0131 
10 on     2466 0.00902
# ... with 23,751 more rows
```
…
Skipgram probabilities
========================================================


```r
tidy_skipgrams
```

```
# A tibble: 1,728,723 x 2
   skipgramID word       
   <chr>      <chr>      
 1 1_1        mortally   
 2 1_1        wounded    
 3 1_1        ari        
 4 1_1        fuld       
 5 1_1        heroically 
 6 1_1        pursued    
 7 1_1        the        
 8 1_1        palestinian
 9 1_2        wounded    
10 1_2        ari        
# ... with 1,728,713 more rows
```
…
What words are most closely associated with "Trump"?
========================================================
&nbsp;


```r
normalized_prob %>% 
    filter(word1 == "trump") %>%
    arrange(-p_together)
```

```
# A tibble: 118 x 7
   word1 word2                n          p      p1        p2 p_together
   <chr> <chr>            <dbl>      <dbl>   <dbl>     <dbl>      <dbl>
 1 trump trump             2350 0.000176   0.00149 0.00149         79.8
 2 trump donald              58 0.00000434 0.00149 0.0000476       61.5
 3 trump admin’s             55 0.00000412 0.00149 0.0000549       50.5
 4 trump admin              169 0.0000127  0.00149 0.000198        43.1
 5 trump administration's    64 0.00000479 0.00149 0.0000768       42.0
 6 trump pres                65 0.00000487 0.00149 0.0000914       35.8
 7 trump administration     537 0.0000402  0.00149 0.000775        34.9
 8 trump administration’s   170 0.0000127  0.00149 0.000285        30.0
 9 trump promised            25 0.00000187 0.00149 0.0000512       24.6
10 trump sabotage            30 0.00000225 0.00149 0.0000622       24.3
# ... with 108 more rows
```
…
Top words associated with "GOP"
========================================================
&nbsp;


```r
gop <- search_synonyms(word_vectors,word_vectors["gop",])
gop
```

```
# A tibble: 6,019 x 2
   token      similarity
   <chr>           <dbl>
 1 tax            0.0830
 2 trump          0.0333
 3 code           0.0331
 4 regulatory     0.0330
 5 dollars        0.0299
 6 corporate      0.0273
 7 cuts           0.0270
 8 gop            0.0257
 9 sales          0.0249
10 relief         0.0236
# ... with 6,009 more rows
```
…
