…
TidyText is... tidy
========================================================
class: small-code


```r
tidy_trump_tweets %>%
  count(word) %>%
    arrange(desc(n))
```

```
# A tibble: 8,690 x 2
   word      n
   <chr> <int>
 1 the    3671
 2 to     2216
 3 and    1959
 4 of     1606
 5 https  1281
 6 t.co   1258
 7 a      1248
 8 in     1213
 9 is     1045
10 for     886
# … with 8,680 more rows
```
…
Inspect Top Words Again
========================================================
class: small-code


```r
tidy_trump_tweets %>%
  count(word) %>%
    arrange(desc(n))
```

```
# A tibble: 8,121 x 2
   word          n
   <chr>     <int>
 1 https      1281
 2 t.co       1258
 3 amp         562
 4 rt          351
 5 people      302
 6 news        271
 7 president   235
 8 fake        234
 9 trump       218
10 country     213
# … with 8,111 more rows
```
…
