Basic Text Analysis in R
…
Now lets load our database of Trump tweets into tidytext format since the tidytext package is part of the tidyverse, which is a family of packages that work well together in R that includes other popular packages such as dplyr and ggplot2 we will use the piping style of coding (%>%) associated with such packages:

library(tidytext)
library(dplyr)
tidy_trump_tweets<- trumptweets %>%
    select(created_at,text) %>%
    unnest_tokens("word", text)

A major advantage of tidytext format is that once the text has been tidy-ed, regular R functions can be used to analyze it instead of the specialized functions necessary to analyze a Corpus object. For example, to count the most popular words in Trumps tweets, we can do the following:

tidy_trump_tweets %>%
  count(word) %>%
    arrange(desc(n))

## # A tibble: 8,690 x 2
##    word      n
##    <chr> <int>
##  1 the    3671
##  2 to     2216
##  3 and    1959
##  4 of     1606
##  5 https  1281
##  6 t.co   1258
##  7 a      1248
##  8 in     1213
##  9 is     1045
## 10 for     886
## #  with 8,680 more rows
…
In tidytext we can remove stopwords as follows:

 data("stop_words")
    tidy_trump_tweets<-tidy_trump_tweets %>%
      anti_join(stop_words)

And now we can repeat the count of top words above:

tidy_trump_tweets %>%
  count(word) %>%
    arrange(desc(n))

## # A tibble: 8,121 x 2
##    word          n
##    <chr>     <int>
##  1 https      1281
##  2 t.co       1258
##  3 amp         562
##  4 rt          351
##  5 people      302
##  6 news        271
##  7 president   235
##  8 fake        234
##  9 trump       218
## 10 country     213
## #  with 8,111 more rows
…
