…
word2vec in Tidytext
========================================================
&nbsp;


```r
unigram_probs
```

```
# A tibble: 23,761 x 3
   word      n       p
   <chr> <int>   <dbl>
 1 the   11864 0.0434 
 2 to    10546 0.0386 
 3 t.co   6498 0.0238 
 4 https  6422 0.0235 
 5 and    5968 0.0218 
 6 of     5315 0.0194 
 7 in     4443 0.0163 
 8 a      4242 0.0155 
 9 for    3580 0.0131 
10 on     2466 0.00902
# … with 23,751 more rows
```
…
