Application Programming Interfaces in R
…
In the code above I created a dataframe that describes the total number of calls I can make within a given deadline (called reset). In this case, it is 15 minutes. In order to prevent rate limiting within a large loop, it is common practice to employ Rs Sys.sleep function, which tells R to sleep for a certain number of seconds before proceeding to the next iteration of a loop. One example of how you could handle this within a loop is using the following type of if statement:

follower_limits<-rate_limits[rate_limits$query=="friends/following/ids",]
if(follower_limits$remaining==0){
  Sys.sleep(15*60)
}

rtweet has a number of other useful functions which I will mention in case they might be useful to readers. get_trends() will identify the trending topics on Twitter in a particular area:

get_trends("New York")

## # A tibble: 50 x 9
##    trend   url          promoted_content query   tweet_volume place  woeid
##  * <chr>   <chr>        <lgl>            <chr>          <int> <chr>  <int>
##  1 deadpo http://twit NA               %22dea       169726 New  2.46e6
##  2 santa  http://twit NA               %22san       540054 New  2.46e6
##  3 #santa http://twit NA               %23san        43107 New  2.46e6
##  4 #gunco http://twit NA               %23gun        22964 New  2.46e6
##  5 #enoug http://twit NA               %23eno        17786 New  2.46e6
##  6 jordan http://twit NA               %22jor        14692 New  2.46e6
##  7 #frida http://twit NA               %23fri        98772 New  2.46e6
##  8 #texas  http://twit NA               %23tex        26368 New  2.46e6
##  9 on sal http://twit NA               %22on+        10385 New  2.46e6
## 10 robert http://twit NA               %22rob           NA New  2.46e6
## # ... with 40 more rows, and 2 more variables: as_of <dttm>,
## #   created_at <dttm>
…
